EESchema Schematic File Version 2
LIBS:power
LIBS:device
LIBS:switches
LIBS:relays
LIBS:motors
LIBS:transistors
LIBS:conn
LIBS:linear
LIBS:regul
LIBS:74xx
LIBS:cmos4000
LIBS:adc-dac
LIBS:memory
LIBS:xilinx
LIBS:microcontrollers
LIBS:dsp
LIBS:microchip
LIBS:analog_switches
LIBS:motorola
LIBS:texas
LIBS:intel
LIBS:audio
LIBS:interface
LIBS:digital-audio
LIBS:philips
LIBS:display
LIBS:cypress
LIBS:siliconi
LIBS:opto
LIBS:atmel
LIBS:contrib
LIBS:valves
LIBS:intelgalileogen2
LIBS:micros-cache
EELAYER 25 0
EELAYER END
$Descr A4 11693 8268
encoding utf-8
Sheet 1 1
Title ""
Date ""
Rev ""
Comp ""
Comment1 ""
Comment2 ""
Comment3 ""
Comment4 ""
$EndDescr
$Comp
L +28V #PWR?
U 1 1 59D46566
P 5100 1500
F 0 "#PWR?" H 5100 1350 50  0001 C CNN
F 1 "+28V" H 5100 1650 50  0000 C CNN
F 2 "" H 5350 1550 50  0001 C CNN
F 3 "" H 5350 1550 50  0001 C CNN
	1    5100 1500
	1    0    0    -1  
$EndComp
$Comp
L GND #PWR?
U 1 1 59D4657F
P 5100 3150
F 0 "#PWR?" H 5100 2900 50  0001 C CNN
F 1 "GND" H 5100 3000 50  0000 C CNN
F 2 "" H 5100 3150 50  0001 C CNN
F 3 "" H 5100 3150 50  0001 C CNN
	1    5100 3150
	1    0    0    -1  
$EndComp
$Comp
L IRLIZ44N Q?
U 1 1 59D466F5
P 4750 2300
F 0 "Q?" H 5000 2375 50  0000 L CNN
F 1 "IRLIZ44N" H 5000 2300 50  0000 L CNN
F 2 "TO_SOT_Packages_THT:TO-220_Vertical" H 5000 2225 50  0001 L CIN
F 3 "" H 4750 2300 50  0001 L CNN
	1    4750 2300
	1    0    0    -1  
$EndComp
$Comp
L IRLIZ44N Q?
U 1 1 59D467B3
P 6300 2300
F 0 "Q?" H 6550 2375 50  0000 L CNN
F 1 "IRLIZ44N" H 6550 2300 50  0000 L CNN
F 2 "TO_SOT_Packages_THT:TO-220_Vertical" H 6550 2225 50  0001 L CIN
F 3 "" H 6300 2300 50  0001 L CNN
	1    6300 2300
	-1   0    0    -1  
$EndComp
$Comp
L IRF7309IPBF Q?
U 2 1 59D468F5
P 4750 1750
F 0 "Q?" H 5000 1825 50  0000 L CNN
F 1 "IRF7309IPBF" H 5000 1750 50  0000 L CNN
F 2 "Housings_SOIC:SOIC-8_3.9x4.9mm_Pitch1.27mm" H 5000 1675 50  0001 L CNN
F 3 "" H 4750 1750 50  0001 L CNN
	2    4750 1750
	1    0    0    -1  
$EndComp
$Comp
L IRF7309IPBF Q?
U 2 1 59D469A6
P 6300 1750
F 0 "Q?" H 6550 1825 50  0000 L CNN
F 1 "IRF7309IPBF" H 6550 1750 50  0000 L CNN
F 2 "Housings_SOIC:SOIC-8_3.9x4.9mm_Pitch1.27mm" H 6550 1675 50  0001 L CNN
F 3 "" H 6300 1750 50  0001 L CNN
	2    6300 1750
	-1   0    0    -1  
$EndComp
$Comp
L MIC4426 U?
U 1 1 59D46C49
P 3500 2150
F 0 "U?" H 3400 2650 50  0000 R CNN
F 1 "MIC4426" H 3400 2550 50  0000 R CNN
F 2 "" H 3500 1850 50  0001 C CNN
F 3 "" H 3500 1850 50  0001 C CNN
	1    3500 2150
	1    0    0    -1  
$EndComp
Text GLabel 4100 2250 2    60   Output ~ 0
Driver1
Text GLabel 6750 2050 2    60   Output ~ 0
Driver1
Text GLabel 5950 2000 0    60   Output ~ 0
OUT_H-
Text GLabel 5050 2000 2    60   Output ~ 0
OUT_H+
$Comp
L HCTL-2016 U?
U 1 1 5A03926B
P 7400 3500
F 0 "U?" H 7400 2900 60  0000 C CNN
F 1 "HCTL-2016" H 7400 3850 60  0000 C CNN
F 2 "" H 7400 3850 60  0001 C CNN
F 3 "" H 7400 3850 60  0001 C CNN
	1    7400 3500
	1    0    0    -1  
$EndComp
$Comp
L HCTL-2016 U?
U 1 1 5A0393FC
P 7800 5000
F 0 "U?" H 7800 4400 60  0000 C CNN
F 1 "HCTL-2016" H 7800 5350 60  0000 C CNN
F 2 "" H 7800 5350 60  0001 C CNN
F 3 "" H 7800 5350 60  0001 C CNN
	1    7800 5000
	1    0    0    -1  
$EndComp
$Comp
L 2DSFJE U?
U 1 1 5A039F9E
P 9650 3300
F 0 "U?" H 9650 2250 60  0000 C CNN
F 1 "2DSFJE" H 9650 3950 60  0000 C CNN
F 2 "" H 9650 3950 60  0001 C CNN
F 3 "" H 9650 3950 60  0001 C CNN
	1    9650 3300
	1    0    0    -1  
$EndComp
Text GLabel 10700 2700 2    60   Output ~ 0
OUT_H+
Text GLabel 10700 2850 2    60   Output ~ 0
OUT_H-
$Comp
L +15V #PWR?
U 1 1 5A03B147
P 8850 1500
F 0 "#PWR?" H 8850 1350 50  0001 C CNN
F 1 "+15V" H 8850 1640 50  0000 C CNN
F 2 "" H 8850 1500 50  0001 C CNN
F 3 "" H 8850 1500 50  0001 C CNN
	1    8850 1500
	1    0    0    -1  
$EndComp
$Comp
L -15V #PWR?
U 1 1 5A03B191
P 8600 1500
F 0 "#PWR?" H 8600 1350 50  0001 C CNN
F 1 "-15V" H 8600 1640 50  0000 C CNN
F 2 "" H 8600 1500 50  0001 C CNN
F 3 "" H 8600 1500 50  0001 C CNN
	1    8600 1500
	1    0    0    -1  
$EndComp
$Comp
L GND #PWR?
U 1 1 5A03B3F0
P 8950 5050
F 0 "#PWR?" H 8950 4800 50  0001 C CNN
F 1 "GND" H 8950 4900 50  0000 C CNN
F 2 "" H 8950 5050 50  0001 C CNN
F 3 "" H 8950 5050 50  0001 C CNN
	1    8950 5050
	1    0    0    -1  
$EndComp
$Comp
L +5V #PWR?
U 1 1 5A03BAB2
P 6000 4950
F 0 "#PWR?" H 6000 4800 50  0001 C CNN
F 1 "+5V" H 6000 5090 50  0000 C CNN
F 2 "" H 6000 4950 50  0001 C CNN
F 3 "" H 6000 4950 50  0001 C CNN
	1    6000 4950
	-1   0    0    1   
$EndComp
Text GLabel 6000 4800 1    60   Input ~ 0
+5V
Text GLabel 8450 4750 2    60   Output ~ 0
+5V
Text GLabel 8300 3250 2    60   Output ~ 0
+5V
Text GLabel 10850 3200 2    60   Output ~ 0
+5V
Text GLabel 8550 3600 0    60   Output ~ 0
+5V
$Comp
L -5V #PWR?
U 1 1 5A03C103
P 5600 4950
F 0 "#PWR?" H 5600 4800 50  0001 C CNN
F 1 "-5V" H 5600 5090 50  0000 C CNN
F 2 "" H 5600 4950 50  0001 C CNN
F 3 "" H 5600 4950 50  0001 C CNN
	1    5600 4950
	-1   0    0    1   
$EndComp
Text GLabel 5600 4800 1    60   Input ~ 0
-5V
Text GLabel 6850 5450 0    60   Output ~ 0
-5V
Text GLabel 6750 3950 0    60   Output ~ 0
-5V
Text GLabel 6200 4300 0    60   Output ~ 0
CLK
Wire Wire Line
	4850 1950 4850 2100
Wire Wire Line
	6200 1950 6200 2100
Connection ~ 6200 2000
Connection ~ 4850 2000
Wire Wire Line
	4850 2500 6200 2500
Wire Wire Line
	5100 3150 5100 2850
Wire Wire Line
	3500 2850 5600 2850
Wire Wire Line
	5600 2850 5600 2500
Connection ~ 5600 2500
Wire Wire Line
	3500 1550 6200 1550
Connection ~ 4950 1550
Connection ~ 6100 1550
Wire Wire Line
	5100 1500 5100 1550
Connection ~ 5100 1550
Wire Wire Line
	3500 1550 3500 1650
Connection ~ 4850 1550
Wire Wire Line
	3500 2650 3500 2850
Connection ~ 5100 2850
Wire Wire Line
	4100 2050 4550 2050
Wire Wire Line
	4550 1800 4550 2300
Connection ~ 4550 2050
Wire Wire Line
	6500 1800 6500 2300
Connection ~ 6500 2050
Wire Wire Line
	6500 2050 6750 2050
Wire Wire Line
	4850 2000 5050 2000
Wire Wire Line
	5950 2000 6200 2000
Wire Wire Line
	10200 2750 10600 2750
Wire Wire Line
	10600 2750 10600 2700
Wire Wire Line
	10600 2700 10700 2700
Wire Wire Line
	10700 2850 10200 2850
Wire Wire Line
	8600 1500 8600 2850
Wire Wire Line
	8600 2850 9100 2850
Wire Wire Line
	8850 1500 8850 2750
Wire Wire Line
	8850 2750 9100 2750
Wire Wire Line
	8800 4000 9100 4000
Wire Wire Line
	8800 2950 9100 2950
Wire Wire Line
	8800 2950 8800 5000
Wire Wire Line
	8800 5000 10450 5000
Wire Wire Line
	8950 5000 8950 5050
Connection ~ 8800 4000
Wire Wire Line
	9100 3700 8800 3700
Connection ~ 8800 3700
Wire Wire Line
	9100 3300 8800 3300
Connection ~ 8800 3300
Wire Wire Line
	10200 3300 10450 3300
Wire Wire Line
	10450 5000 10450 2950
Wire Wire Line
	10450 2950 10200 2950
Connection ~ 8950 5000
Connection ~ 10450 3300
Wire Wire Line
	10200 3700 10450 3700
Connection ~ 10450 3700
Wire Wire Line
	9100 3400 8200 3400
Wire Wire Line
	8200 3400 8200 3000
Wire Wire Line
	8200 3000 6650 3000
Wire Wire Line
	6650 3000 6650 3850
Wire Wire Line
	6650 3850 6900 3850
Wire Wire Line
	9100 3500 8050 3500
Wire Wire Line
	8050 3500 8050 3100
Wire Wire Line
	8050 3100 6800 3100
Wire Wire Line
	6800 3100 6800 3750
Wire Wire Line
	6800 3750 6900 3750
Wire Wire Line
	9100 3800 8300 3800
Wire Wire Line
	8300 3800 8300 4300
Wire Wire Line
	9100 3900 8450 3900
Wire Wire Line
	8450 3900 8450 4450
Wire Wire Line
	8300 4300 6750 4300
Wire Wire Line
	6750 4300 6750 5350
Wire Wire Line
	6750 5350 7300 5350
Wire Wire Line
	8450 4450 6900 4450
Wire Wire Line
	6900 4450 6900 5250
Wire Wire Line
	6900 5250 7300 5250
Wire Wire Line
	6000 4950 6000 4800
Wire Wire Line
	10850 3200 10200 3200
Wire Wire Line
	10650 3200 10650 3600
Wire Wire Line
	10650 3600 10200 3600
Connection ~ 10650 3200
Wire Wire Line
	8550 3600 9100 3600
Wire Wire Line
	8950 3600 8950 3200
Wire Wire Line
	8950 3200 9100 3200
Connection ~ 8950 3600
Wire Wire Line
	8300 3250 7900 3250
Wire Wire Line
	8450 4750 8300 4750
Wire Wire Line
	5600 4950 5600 4800
Wire Wire Line
	7300 5450 6850 5450
Wire Wire Line
	6750 3950 6900 3950
Wire Wire Line
	6500 4850 7300 4850
Wire Wire Line
	6500 3350 6500 4850
Wire Wire Line
	6500 4300 6200 4300
Wire Wire Line
	6500 3350 6900 3350
Connection ~ 6500 4300
$Comp
L IntelGalileoGen2 U?
U 1 1 59D463ED
P 1300 1950
F 0 "U?" H 1300 200 60  0000 C CNN
F 1 "IntelGalileoGen2" H 1300 2400 60  0000 C CNN
F 2 "" H 1300 2400 60  0001 C CNN
F 3 "" H 1300 2400 60  0001 C CNN
	1    1300 1950
	1    0    0    -1  
$EndComp
$EndSCHEMATC
